{"hash":"883e0619be452c206c018daa9db056202303a4f1","data":{"posts":{"totalCount":8,"pageInfo":{"totalPages":2,"currentPage":2},"edges":[{"node":{"id":"c24a8683502d675c61969c3724b3a034","title":"Mac Pro 2019 Review","date":"March 11, 2019","summary":"Lorem ipsum dolor sit amet consectetur adipisicing elit. Hic rerum earum quos explicabo suscipit maxime iste qui nihil. Reiciendis asperiores minus necessitatibus","timeToRead":1,"path":"/mac-pro-2019-review","tags":[{"title":"hardware","path":"/tag/hardware/"},{"title":"review","path":"/tag/review/"}],"image":{"type":"image","mimeType":"image/jpeg","src":"/portfolio/assets/static/blog_bg_3.3df3210.659dca4a540337a26bc57cb07a13dfe8.jpg","size":{"width":1024,"height":576},"sizes":"(max-width: 1024px) 100vw, 1024px","srcset":["/portfolio/assets/static/blog_bg_3.1b91758.659dca4a540337a26bc57cb07a13dfe8.jpg 480w","/portfolio/assets/static/blog_bg_3.3df3210.659dca4a540337a26bc57cb07a13dfe8.jpg 1024w"],"dataUri":"data:image/svg+xml,%3csvg fill='none' viewBox='0 0 1024 576' xmlns='http://www.w3.org/2000/svg' xmlns:xlink='http://www.w3.org/1999/xlink'%3e%3cdefs%3e%3cfilter id='__svg-blur-6e446cf6cc004af5cf592eafcc3dc186'%3e%3cfeGaussianBlur in='SourceGraphic' stdDeviation='40'/%3e%3c/filter%3e%3c/defs%3e%3cimage x='0' y='0' filter='url(%23__svg-blur-6e446cf6cc004af5cf592eafcc3dc186)' width='1024' height='576' xlink:href='data:image/jpeg%3bbase64%2c/9j/2wBDAAYEBQYFBAYGBQYHBwYIChAKCgkJChQODwwQFxQYGBcUFhYaHSUfGhsjHBYWICwgIyYnKSopGR8tMC0oMCUoKSj/2wBDAQcHBwoIChMKChMoGhYaKCgoKCgoKCgoKCgoKCgoKCgoKCgoKCgoKCgoKCgoKCgoKCgoKCgoKCgoKCgoKCgoKCj/wAARCAAkAEADASIAAhEBAxEB/8QAGwAAAgMBAQEAAAAAAAAAAAAAAAQDBgcFAgj/xAAtEAACAQQBAwMCBQUAAAAAAAABAgMABAURIQYSMRNBUYGRBxQicaEVFiRSYf/EABkBAAMBAQEAAAAAAAAAAAAAAAACAwEFBP/EAB8RAAICAQQDAAAAAAAAAAAAAAABAhEDEiFBYTGR0f/aAAwDAQACEQMRAD8Arjfh7Oy7RG3rkUhL0be28mhaykfIHBrdcN1n0XdLEPzMnqNwVCliv0A5rrzdUdHoHjuJJkjA7ixt3I/fXbXR1VwcxR7PnP8Atm8jI9W1kTfja%2baXu8NKV5VwQNe%2bq3S%2b69wYdkxmNubq0jG/zDqFQjXkDzVPzfXGKfcRxUgcP6Y7SFBYjegTr25pk74B0uTNLbHLaktJHIWPFT3NlC6bEeifg6qbJdbxmT/Hw8vp%2b/qHZP28Vx7zq%2bSSMiLDRox8ElzqjUgpkV1jguz6TFfne90obR2GljCj/tP2vVKGPtusQe//AGTZH880vL1GiTExYxdDwG5rNSNo0nIYSxlxkogxq4%2b71tLqDsDKRz4pGwlx1rhryxymTv8AISXHHrTTakj5BPaw5BOuTvxWMSWMAXVzNLK3wG0P5p6zFxkbhLe2aOMBdd0sojRFA92J0PFK5dE10zRWxvTkUG4r7IxgA61ePx/Nc6DD9G5mRriXqm8Re/TxyyD1NgeAW3v6GqVIlzbWEd3O6Isj9iRs36245bXxSc14HVQUQ68bAOqVseLNeA6GENzayZhnVo1AnlRnCnXJXs47v3qp9RWPSyWpOHz19cTfD2ek%2brdwI%2bxqjC6Y8carw90d6A1WOQyW%2bxY8MMWQ/wDVry6iUEaW3hEhYe/JI19jVgsrHoyf1mORyiED9CymOM7%2bq1mxlYmpFmceHb700MkV5jZLJinJ3GTXr4STSMfJpSRyQQdGiipyKwQs0jbJ3zQJGJ0TRRUz00iRXI96O4nmiigQC53XruPbuiigD//Z' /%3e%3c/svg%3e"}}},{"node":{"id":"a5f094e7e1685dc158897f9907bc57ce","title":"Design for Developers","date":"March 7, 2019","summary":"Lorem ipsum dolor sit amet consectetur adipisicing elit. Hic rerum earum quos explicabo suscipit maxime iste qui nihil. Reiciendis asperiores minus necessitatibus","timeToRead":1,"path":"/design-for-developers","tags":[{"title":"design","path":"/tag/design/"},{"title":"frontend","path":"/tag/frontend/"}],"image":{"type":"image","mimeType":"image/jpeg","src":"/portfolio/assets/static/blog_bg_4.3df3210.b2ed1604fea9bd8ed8b04c003814e4b3.jpg","size":{"width":1024,"height":576},"sizes":"(max-width: 1024px) 100vw, 1024px","srcset":["/portfolio/assets/static/blog_bg_4.1b91758.b2ed1604fea9bd8ed8b04c003814e4b3.jpg 480w","/portfolio/assets/static/blog_bg_4.3df3210.b2ed1604fea9bd8ed8b04c003814e4b3.jpg 1024w"],"dataUri":"data:image/svg+xml,%3csvg fill='none' viewBox='0 0 1024 576' xmlns='http://www.w3.org/2000/svg' xmlns:xlink='http://www.w3.org/1999/xlink'%3e%3cdefs%3e%3cfilter id='__svg-blur-47aff99bda0d94f11d316dcbdceb8ace'%3e%3cfeGaussianBlur in='SourceGraphic' stdDeviation='40'/%3e%3c/filter%3e%3c/defs%3e%3cimage x='0' y='0' filter='url(%23__svg-blur-47aff99bda0d94f11d316dcbdceb8ace)' width='1024' height='576' xlink:href='data:image/jpeg%3bbase64%2c/9j/2wBDAAYEBQYFBAYGBQYHBwYIChAKCgkJChQODwwQFxQYGBcUFhYaHSUfGhsjHBYWICwgIyYnKSopGR8tMC0oMCUoKSj/2wBDAQcHBwoIChMKChMoGhYaKCgoKCgoKCgoKCgoKCgoKCgoKCgoKCgoKCgoKCgoKCgoKCgoKCgoKCgoKCgoKCgoKCj/wAARCAAkAEADASIAAhEBAxEB/8QAHQAAAQQDAQEAAAAAAAAAAAAABQAEBgcCAwgBCf/EADIQAAIBAwMBBgQEBwAAAAAAAAECAwAEEQUSIQYHIjFBYXETMlGRFUKBoQgUM0NSwfH/xAAYAQADAQEAAAAAAAAAAAAAAAAAAQIDBP/EABsRAQEAAgMBAAAAAAAAAAAAAAEAETECEiFB/9oADAMBAAIRAxEAPwAD/D31hqtn1FDo0U8b6VPIBJFMxDI2OSgPnke3NdWRRNcsqoSuOe8MV8/%2bzvq%2b46W6hs7%2bKOKaOGb4pjYY59GHI4/T0rpLqTt0GiXuify8UU8l1B8a7UHIh3bSoBz5KST64pj5c6Ya9xut5UWZSUB%2bYcgURVlI7pB9qhcvXfT34JFq02o7bW4QPCoILyZ8gvjn3qrdQ7VdVmuZhpC2djbg4RpczSH1OO6Kb7uo5Y1dC/KCTzQ7Vde0vSbcz6jewwKF3YZu8R6L4muYrjrXX5zKJdXuZWk4ZnkCLj6bV5x6cUCvdctYLWWW8uHknGNuOVP1J/bAqck%2b9Z3VPbHfXWoSR6LbG30xY22ySjvyP%2bViB4Lny/5TfpvtWv4JVbW41vICPnKhJcDzyODn1%2b9UVcdTLc3I2IwU/wCeST%2blYzdQAZ3g8DxbgD2pdkko7q2jb4eDnnyrc1zJMyfEkZiBxk16bVWCKWcEDyHjW2KxBYbPisc%2bQqck%2bxTXSNVs1hjiSV2liXGG5BPoTT%2bfVS6kPMsa4JAVgajemdK397h0tXWI875WCLR49HWENmGluXFxu27kYlFPseT%2b1PC2c0/G4QCGlY%2bwyfvQa91BZpCUDsM/mpzqHT13Cv8ATWWMf3In8fehbQFDh4nBH3qdRaZLqUBiHKD0oXcXBc%2bJPqTRCaFXO1pGX6jwpq9lGPCU48jimNYn2L7Ehl2qgOD4mpJbbbYJsjQnAOWGaVKtOAYzTyn0eq3Uz7HcBfDjyrK9unkt7aAqgQo54HPzY/1SpVbSTaG5lX5XIIGM/X3%2btZ3axz2AnkijL7tpGODSpUJmKP3lhbmJ5AmGyc4JwaFS28QO3b3cZpUq53dpf//Z' /%3e%3c/svg%3e"}}}]}},"context":{}}