{"hash":"883e0619be452c206c018daa9db056202303a4f1","data":{"posts":{"totalCount":8,"pageInfo":{"totalPages":2,"currentPage":1},"edges":[{"node":{"id":"eb9e2450e39bb4bf51545c740a021cfd","title":"Introduction to Gridsome","date":"April 8, 2019","summary":"Gridsome is a Vue.js-powered, modern site generator for building the fastest possible websites for any Headless CMS, APIs or Markdown-files. Gridsome makes it easy and fun for developers to create fast, beautiful websites without needing to become a performance expert.","timeToRead":1,"path":"/introduction-to-gridsome","tags":[{"title":"frontend","path":"/tag/frontend/"},{"title":"coding","path":"/tag/coding/"},{"title":"vue","path":"/tag/vue/"}],"image":{"type":"image","mimeType":"image/jpeg","src":"/portfolio/assets/static/blog_bg_1.3df3210.7132e1ecaa29dd534fc8dc790ef09f53.jpg","size":{"width":1024,"height":576},"sizes":"(max-width: 1024px) 100vw, 1024px","srcset":["/portfolio/assets/static/blog_bg_1.1b91758.7132e1ecaa29dd534fc8dc790ef09f53.jpg 480w","/portfolio/assets/static/blog_bg_1.3df3210.7132e1ecaa29dd534fc8dc790ef09f53.jpg 1024w"],"dataUri":"data:image/svg+xml,%3csvg fill='none' viewBox='0 0 1024 576' xmlns='http://www.w3.org/2000/svg' xmlns:xlink='http://www.w3.org/1999/xlink'%3e%3cdefs%3e%3cfilter id='__svg-blur-8d346162c9e7f0431728834fd1450cf9'%3e%3cfeGaussianBlur in='SourceGraphic' stdDeviation='40'/%3e%3c/filter%3e%3c/defs%3e%3cimage x='0' y='0' filter='url(%23__svg-blur-8d346162c9e7f0431728834fd1450cf9)' width='1024' height='576' xlink:href='data:image/jpeg%3bbase64%2c/9j/2wBDAAYEBQYFBAYGBQYHBwYIChAKCgkJChQODwwQFxQYGBcUFhYaHSUfGhsjHBYWICwgIyYnKSopGR8tMC0oMCUoKSj/2wBDAQcHBwoIChMKChMoGhYaKCgoKCgoKCgoKCgoKCgoKCgoKCgoKCgoKCgoKCgoKCgoKCgoKCgoKCgoKCgoKCgoKCj/wAARCAAkAEADASIAAhEBAxEB/8QAGgAAAgMBAQAAAAAAAAAAAAAAAwQABQYHAf/EAC4QAAICAQMBBQYHAAAAAAAAAAECAAMRBCExEgUTIlFhBhQWQZGhBzIzU2KBsf/EABkBAQADAQEAAAAAAAAAAAAAAAEDBAUCBv/EAB8RAAICAgIDAQAAAAAAAAAAAAABAgMRMRIhBDJBUf/aAAwDAQACEQMRAD8A44lRwNoUV7x2tBtttGEpU8iaisR5yXjzK9K8w6aYn5R9NMDxGa9O43xmTxlB/SlZXbH4V1elYniEOmK8j7S6qV12FcYq0l13CsfTEsJQa6ZnyusTw0Zd6WPAJ/qBt05A3mys7D1ar1d0QvmTiVmp0JQ%2bM8esiscI9NlqhXWYcYvBzkdv0jHSl31G0YT2grBHSLc%2buBMoV8OftCrhNy2/kJkJnrmvw1vxKyDCVsT6naJa/wBptZfTZQjBFcYJTIK7/IygZnanqDY8UFWOlix/LjPHMeSWgUW9s0nYPtJq%2bzrmUWtbU3KuxJU%2bYl18ea1XBBTbzJnP0DMSwUk5xC961TdLbkQynseLXqdMt/ErW29n%2b7%2b709X7isf8xM1f29rNQ5JfJPkJnhqCGUjpUfPIjfcl2oNtgUWkhSDtxCEK4%2bqCyy2WOTK/rPQnEDYxLSSQJAzjpfuwT04U/UZhD%2bln%2bWPtJJAWeaPe4Lk4JhLKUY9ZHibJO8kkUcvYtq1C2qo4g3ts7qpS7EVt4d%2bJJJw9kq0f/9k=' /%3e%3c/svg%3e"}}},{"node":{"id":"6c2376c7977970e9b020ab8ffb3cd2a1","title":"How to Get Better At Coding","date":"April 5, 2019","summary":"Lorem ipsum dolor sit amet consectetur adipisicing elit. Hic rerum earum quos explicabo suscipit maxime iste qui nihil. Reiciendis asperiores minus necessitatibus","timeToRead":2,"path":"/how-to-get-better-at-coding","tags":[{"title":"coding","path":"/tag/coding/"},{"title":"frontend","path":"/tag/frontend/"},{"title":"backend","path":"/tag/backend/"}],"image":{"type":"image","mimeType":"image/jpeg","src":"/portfolio/assets/static/blog_bg_2.3df3210.a07cff5f4273a1d6ec3e440574567395.jpg","size":{"width":1024,"height":576},"sizes":"(max-width: 1024px) 100vw, 1024px","srcset":["/portfolio/assets/static/blog_bg_2.1b91758.a07cff5f4273a1d6ec3e440574567395.jpg 480w","/portfolio/assets/static/blog_bg_2.3df3210.a07cff5f4273a1d6ec3e440574567395.jpg 1024w"],"dataUri":"data:image/svg+xml,%3csvg fill='none' viewBox='0 0 1024 576' xmlns='http://www.w3.org/2000/svg' xmlns:xlink='http://www.w3.org/1999/xlink'%3e%3cdefs%3e%3cfilter id='__svg-blur-b444e3356503589a3a85e516e7b0fbc7'%3e%3cfeGaussianBlur in='SourceGraphic' stdDeviation='40'/%3e%3c/filter%3e%3c/defs%3e%3cimage x='0' y='0' filter='url(%23__svg-blur-b444e3356503589a3a85e516e7b0fbc7)' width='1024' height='576' xlink:href='data:image/jpeg%3bbase64%2c/9j/2wBDAAYEBQYFBAYGBQYHBwYIChAKCgkJChQODwwQFxQYGBcUFhYaHSUfGhsjHBYWICwgIyYnKSopGR8tMC0oMCUoKSj/2wBDAQcHBwoIChMKChMoGhYaKCgoKCgoKCgoKCgoKCgoKCgoKCgoKCgoKCgoKCgoKCgoKCgoKCgoKCgoKCgoKCgoKCj/wAARCAAkAEADASIAAhEBAxEB/8QAHAAAAQUBAQEAAAAAAAAAAAAAAAMEBQYHAgEI/8QALhAAAQMDAgQEBwADAAAAAAAAAQIDBAAFEQYhEjFRYRMiQYEHFCNScZGxQnKh/8QAGwEAAQQDAAAAAAAAAAAAAAAABAABAgUDBgf/xAApEQACAgEDAgQHAQAAAAAAAAABAgADEQQSIQUxQWFx8BMUQlGBkaHR/9oADAMBAAIRAxEAPwCuMxO1PWofaqSjXEpMkExY3hEDy5JI9x/K0fTlwg3thTkJZUUYC0qTwke3SgLXesZM3LSXae9tqHmN0Qu1LJh49KsCIQxyrv5PtQp1eJZigSCRE23FdGGOlToigele/LDpUfnRMopEo97sCJyVEpBIQrCfuXjCc9h071D6c0%2bbehXGfrpHhOY5K5KB/wCmtLXEyai5sURpjbpwG3vpr7KGSk/0e4phrvpBg76GouLcczHG1MwUtKbiNSFSGjwqVlQzyJAI7GrX8LLW6i9okpnOtxnEEBtIPC4vG6Fegxueu21LXfW%2bjLxdHXJ%2bnJyoSlKKEtuoQpoFIHlx/qP2a7kfEOxWWOI2ibdLaaW0eMTVDCHPQpGTnnufXA2oq74zpsVTk%2bmPf4mqaa6lLQ7Hhe3sf7NdRH2qA13LlWjTUmVBQ6qSkp4OBvjxvkk9sVVLD8Wm1W6Sb1GS1IQkJZUweIOKxvkHlvj94qb0Lq6XqiaWHFQm2RHWoIKuF51WPRJ6YJOM7Yqgsp1GnJssXKr385eN1Kq1dqNgn%2bTLomobuvUrL79zeQpakqWVg8DfUcGwVgE7fnnW/oZ8ieIgqwMkcjVO19ZtNquNpbkzWYUpLoKg0tJ4EYGSof4jygb9TV/tgauMNuTb1h%2bOoeVSN%2b2/T3oLqnVUauu1FKg58MenMhoWNJcO%2befvGCmRTG6wPm4TzCTwKUnyq%2b1XMH2OKe6kukDTsXx7o4pscwhKSpZGcZA965sU%2bJfbeJkDxfCKikhxBSoHuDVYutuCC/adue/hmWI1KMdhM%2bT6BRRXUZz6e0vFlPxStUZ5xpS0FtRQrBKTzH4NFFMQCMGIHHaIZp5Euc%2bGngiTZLCCclLTqkg%2bwNFFOyhhhhmIEjkR1cdR3q4pbTPukyQlvIR4jpPCM5/tLR9WX%2bNb1wmrvMEVfNsuZ7czuP3RRWE6akjaUGB5CTW1wchj%2b5//2Q==' /%3e%3c/svg%3e"}}},{"node":{"id":"226940e79ede7cd123fa17219fe3cd45","title":"Top 5 Static Site Generators in Vue","date":"April 3, 2019","summary":"Lorem ipsum dolor sit amet consectetur adipisicing elit. Hic rerum earum quos explicabo suscipit maxime iste qui nihil. Reiciendis asperiores minus necessitatibus","timeToRead":1,"path":"/top-5-static-site-generators-in-vue","tags":[{"title":"frontend","path":"/tag/frontend/"},{"title":"coding","path":"/tag/coding/"},{"title":"vue","path":"/tag/vue/"}],"image":{"type":"image","mimeType":"image/jpeg","src":"/portfolio/assets/static/blog_bg_3.3df3210.659dca4a540337a26bc57cb07a13dfe8.jpg","size":{"width":1024,"height":576},"sizes":"(max-width: 1024px) 100vw, 1024px","srcset":["/portfolio/assets/static/blog_bg_3.1b91758.659dca4a540337a26bc57cb07a13dfe8.jpg 480w","/portfolio/assets/static/blog_bg_3.3df3210.659dca4a540337a26bc57cb07a13dfe8.jpg 1024w"],"dataUri":"data:image/svg+xml,%3csvg fill='none' viewBox='0 0 1024 576' xmlns='http://www.w3.org/2000/svg' xmlns:xlink='http://www.w3.org/1999/xlink'%3e%3cdefs%3e%3cfilter id='__svg-blur-6e446cf6cc004af5cf592eafcc3dc186'%3e%3cfeGaussianBlur in='SourceGraphic' stdDeviation='40'/%3e%3c/filter%3e%3c/defs%3e%3cimage x='0' y='0' filter='url(%23__svg-blur-6e446cf6cc004af5cf592eafcc3dc186)' width='1024' height='576' xlink:href='data:image/jpeg%3bbase64%2c/9j/2wBDAAYEBQYFBAYGBQYHBwYIChAKCgkJChQODwwQFxQYGBcUFhYaHSUfGhsjHBYWICwgIyYnKSopGR8tMC0oMCUoKSj/2wBDAQcHBwoIChMKChMoGhYaKCgoKCgoKCgoKCgoKCgoKCgoKCgoKCgoKCgoKCgoKCgoKCgoKCgoKCgoKCgoKCgoKCj/wAARCAAkAEADASIAAhEBAxEB/8QAGwAAAgMBAQEAAAAAAAAAAAAAAAQDBgcFAgj/xAAtEAACAQQBAwMCBQUAAAAAAAABAgMABAURIQYSMRNBUYGRBxQicaEVFiRSYf/EABkBAAMBAQEAAAAAAAAAAAAAAAACAwEFBP/EAB8RAAICAQQDAAAAAAAAAAAAAAABAhEDEiFBYTGR0f/aAAwDAQACEQMRAD8Arjfh7Oy7RG3rkUhL0be28mhaykfIHBrdcN1n0XdLEPzMnqNwVCliv0A5rrzdUdHoHjuJJkjA7ixt3I/fXbXR1VwcxR7PnP8Atm8jI9W1kTfja%2baXu8NKV5VwQNe%2bq3S%2b69wYdkxmNubq0jG/zDqFQjXkDzVPzfXGKfcRxUgcP6Y7SFBYjegTr25pk74B0uTNLbHLaktJHIWPFT3NlC6bEeifg6qbJdbxmT/Hw8vp%2b/qHZP28Vx7zq%2bSSMiLDRox8ElzqjUgpkV1jguz6TFfne90obR2GljCj/tP2vVKGPtusQe//AGTZH880vL1GiTExYxdDwG5rNSNo0nIYSxlxkogxq4%2b71tLqDsDKRz4pGwlx1rhryxymTv8AISXHHrTTakj5BPaw5BOuTvxWMSWMAXVzNLK3wG0P5p6zFxkbhLe2aOMBdd0sojRFA92J0PFK5dE10zRWxvTkUG4r7IxgA61ePx/Nc6DD9G5mRriXqm8Re/TxyyD1NgeAW3v6GqVIlzbWEd3O6Isj9iRs36245bXxSc14HVQUQ68bAOqVseLNeA6GENzayZhnVo1AnlRnCnXJXs47v3qp9RWPSyWpOHz19cTfD2ek%2brdwI%2bxqjC6Y8carw90d6A1WOQyW%2bxY8MMWQ/wDVry6iUEaW3hEhYe/JI19jVgsrHoyf1mORyiED9CymOM7%2bq1mxlYmpFmceHb700MkV5jZLJinJ3GTXr4STSMfJpSRyQQdGiipyKwQs0jbJ3zQJGJ0TRRUz00iRXI96O4nmiigQC53XruPbuiigD//Z' /%3e%3c/svg%3e"}}},{"node":{"id":"56d5836c7bb8a58a1c1de6d459c5eb69","title":"Vue vs React Comparison","date":"March 27, 2019","summary":"Lorem ipsum dolor sit amet consectetur adipisicing elit. Hic rerum earum quos explicabo suscipit maxime iste qui nihil. Reiciendis asperiores minus necessitatibus","timeToRead":1,"path":"/vue-vs-react-comparison","tags":[{"title":"frontend","path":"/tag/frontend/"},{"title":"vue","path":"/tag/vue/"},{"title":"react","path":"/tag/react/"},{"title":"coding","path":"/tag/coding/"}],"image":{"type":"image","mimeType":"image/jpeg","src":"/portfolio/assets/static/blog_bg_4.3df3210.b2ed1604fea9bd8ed8b04c003814e4b3.jpg","size":{"width":1024,"height":576},"sizes":"(max-width: 1024px) 100vw, 1024px","srcset":["/portfolio/assets/static/blog_bg_4.1b91758.b2ed1604fea9bd8ed8b04c003814e4b3.jpg 480w","/portfolio/assets/static/blog_bg_4.3df3210.b2ed1604fea9bd8ed8b04c003814e4b3.jpg 1024w"],"dataUri":"data:image/svg+xml,%3csvg fill='none' viewBox='0 0 1024 576' xmlns='http://www.w3.org/2000/svg' xmlns:xlink='http://www.w3.org/1999/xlink'%3e%3cdefs%3e%3cfilter id='__svg-blur-47aff99bda0d94f11d316dcbdceb8ace'%3e%3cfeGaussianBlur in='SourceGraphic' stdDeviation='40'/%3e%3c/filter%3e%3c/defs%3e%3cimage x='0' y='0' filter='url(%23__svg-blur-47aff99bda0d94f11d316dcbdceb8ace)' width='1024' height='576' xlink:href='data:image/jpeg%3bbase64%2c/9j/2wBDAAYEBQYFBAYGBQYHBwYIChAKCgkJChQODwwQFxQYGBcUFhYaHSUfGhsjHBYWICwgIyYnKSopGR8tMC0oMCUoKSj/2wBDAQcHBwoIChMKChMoGhYaKCgoKCgoKCgoKCgoKCgoKCgoKCgoKCgoKCgoKCgoKCgoKCgoKCgoKCgoKCgoKCgoKCj/wAARCAAkAEADASIAAhEBAxEB/8QAHQAAAQQDAQEAAAAAAAAAAAAABQAEBgcCAwgBCf/EADIQAAIBAwMBBgQEBwAAAAAAAAECAwAEEQUSIQYHIjFBYXETMlGRFUKBoQgUM0NSwfH/xAAYAQADAQEAAAAAAAAAAAAAAAAAAQIDBP/EABsRAQEAAgMBAAAAAAAAAAAAAAEAETECEiFB/9oADAMBAAIRAxEAPwAD/D31hqtn1FDo0U8b6VPIBJFMxDI2OSgPnke3NdWRRNcsqoSuOe8MV8/%2bzvq%2b46W6hs7%2bKOKaOGb4pjYY59GHI4/T0rpLqTt0GiXuify8UU8l1B8a7UHIh3bSoBz5KST64pj5c6Ya9xut5UWZSUB%2bYcgURVlI7pB9qhcvXfT34JFq02o7bW4QPCoILyZ8gvjn3qrdQ7VdVmuZhpC2djbg4RpczSH1OO6Kb7uo5Y1dC/KCTzQ7Vde0vSbcz6jewwKF3YZu8R6L4muYrjrXX5zKJdXuZWk4ZnkCLj6bV5x6cUCvdctYLWWW8uHknGNuOVP1J/bAqck%2b9Z3VPbHfXWoSR6LbG30xY22ySjvyP%2bViB4Lny/5TfpvtWv4JVbW41vICPnKhJcDzyODn1%2b9UVcdTLc3I2IwU/wCeST%2blYzdQAZ3g8DxbgD2pdkko7q2jb4eDnnyrc1zJMyfEkZiBxk16bVWCKWcEDyHjW2KxBYbPisc%2bQqck%2bxTXSNVs1hjiSV2liXGG5BPoTT%2bfVS6kPMsa4JAVgajemdK397h0tXWI875WCLR49HWENmGluXFxu27kYlFPseT%2b1PC2c0/G4QCGlY%2bwyfvQa91BZpCUDsM/mpzqHT13Cv8ATWWMf3In8fehbQFDh4nBH3qdRaZLqUBiHKD0oXcXBc%2bJPqTRCaFXO1pGX6jwpq9lGPCU48jimNYn2L7Ehl2qgOD4mpJbbbYJsjQnAOWGaVKtOAYzTyn0eq3Uz7HcBfDjyrK9unkt7aAqgQo54HPzY/1SpVbSTaG5lX5XIIGM/X3%2btZ3axz2AnkijL7tpGODSpUJmKP3lhbmJ5AmGyc4JwaFS28QO3b3cZpUq53dpf//Z' /%3e%3c/svg%3e"}}},{"node":{"id":"6689ea2d3ecc09db215053474a3f5ab5","title":"What I Ate for Breakfast","date":"March 21, 2019","summary":"Lorem ipsum dolor sit amet consectetur adipisicing elit. Hic rerum earum quos explicabo suscipit maxime iste qui nihil. Reiciendis asperiores minus necessitatibus","timeToRead":1,"path":"/what-i-ate-for-breakfast","tags":[{"title":"lifestyle","path":"/tag/lifestyle/"}],"image":{"type":"image","mimeType":"image/jpeg","src":"/portfolio/assets/static/blog_bg_1.3df3210.7132e1ecaa29dd534fc8dc790ef09f53.jpg","size":{"width":1024,"height":576},"sizes":"(max-width: 1024px) 100vw, 1024px","srcset":["/portfolio/assets/static/blog_bg_1.1b91758.7132e1ecaa29dd534fc8dc790ef09f53.jpg 480w","/portfolio/assets/static/blog_bg_1.3df3210.7132e1ecaa29dd534fc8dc790ef09f53.jpg 1024w"],"dataUri":"data:image/svg+xml,%3csvg fill='none' viewBox='0 0 1024 576' xmlns='http://www.w3.org/2000/svg' xmlns:xlink='http://www.w3.org/1999/xlink'%3e%3cdefs%3e%3cfilter id='__svg-blur-8d346162c9e7f0431728834fd1450cf9'%3e%3cfeGaussianBlur in='SourceGraphic' stdDeviation='40'/%3e%3c/filter%3e%3c/defs%3e%3cimage x='0' y='0' filter='url(%23__svg-blur-8d346162c9e7f0431728834fd1450cf9)' width='1024' height='576' xlink:href='data:image/jpeg%3bbase64%2c/9j/2wBDAAYEBQYFBAYGBQYHBwYIChAKCgkJChQODwwQFxQYGBcUFhYaHSUfGhsjHBYWICwgIyYnKSopGR8tMC0oMCUoKSj/2wBDAQcHBwoIChMKChMoGhYaKCgoKCgoKCgoKCgoKCgoKCgoKCgoKCgoKCgoKCgoKCgoKCgoKCgoKCgoKCgoKCgoKCj/wAARCAAkAEADASIAAhEBAxEB/8QAGgAAAgMBAQAAAAAAAAAAAAAAAwQABQYHAf/EAC4QAAICAQMBBQYHAAAAAAAAAAECAAMRBCExEgUTIlFhBhQWQZGhBzIzU2KBsf/EABkBAQADAQEAAAAAAAAAAAAAAAEDBAUCBv/EAB8RAAICAgIDAQAAAAAAAAAAAAABAgMRMRIhBDJBUf/aAAwDAQACEQMRAD8A44lRwNoUV7x2tBtttGEpU8iaisR5yXjzK9K8w6aYn5R9NMDxGa9O43xmTxlB/SlZXbH4V1elYniEOmK8j7S6qV12FcYq0l13CsfTEsJQa6ZnyusTw0Zd6WPAJ/qBt05A3mys7D1ar1d0QvmTiVmp0JQ%2bM8esiscI9NlqhXWYcYvBzkdv0jHSl31G0YT2grBHSLc%2buBMoV8OftCrhNy2/kJkJnrmvw1vxKyDCVsT6naJa/wBptZfTZQjBFcYJTIK7/IygZnanqDY8UFWOlix/LjPHMeSWgUW9s0nYPtJq%2bzrmUWtbU3KuxJU%2bYl18ea1XBBTbzJnP0DMSwUk5xC961TdLbkQynseLXqdMt/ErW29n%2b7%2b709X7isf8xM1f29rNQ5JfJPkJnhqCGUjpUfPIjfcl2oNtgUWkhSDtxCEK4%2bqCyy2WOTK/rPQnEDYxLSSQJAzjpfuwT04U/UZhD%2bln%2bWPtJJAWeaPe4Lk4JhLKUY9ZHibJO8kkUcvYtq1C2qo4g3ts7qpS7EVt4d%2bJJJw9kq0f/9k=' /%3e%3c/svg%3e"}}},{"node":{"id":"2d779f9d005645cfb8056da2a28cd85e","title":"Freelance vs Full Time Work","date":"March 17, 2019","summary":"Lorem ipsum dolor sit amet consectetur adipisicing elit. Hic rerum earum quos explicabo suscipit maxime iste qui nihil. Reiciendis asperiores minus necessitatibus","timeToRead":1,"path":"/freelance-vs-full-time-work","tags":[{"title":"business","path":"/tag/business/"}],"image":{"type":"image","mimeType":"image/jpeg","src":"/portfolio/assets/static/blog_bg_2.3df3210.a07cff5f4273a1d6ec3e440574567395.jpg","size":{"width":1024,"height":576},"sizes":"(max-width: 1024px) 100vw, 1024px","srcset":["/portfolio/assets/static/blog_bg_2.1b91758.a07cff5f4273a1d6ec3e440574567395.jpg 480w","/portfolio/assets/static/blog_bg_2.3df3210.a07cff5f4273a1d6ec3e440574567395.jpg 1024w"],"dataUri":"data:image/svg+xml,%3csvg fill='none' viewBox='0 0 1024 576' xmlns='http://www.w3.org/2000/svg' xmlns:xlink='http://www.w3.org/1999/xlink'%3e%3cdefs%3e%3cfilter id='__svg-blur-b444e3356503589a3a85e516e7b0fbc7'%3e%3cfeGaussianBlur in='SourceGraphic' stdDeviation='40'/%3e%3c/filter%3e%3c/defs%3e%3cimage x='0' y='0' filter='url(%23__svg-blur-b444e3356503589a3a85e516e7b0fbc7)' width='1024' height='576' xlink:href='data:image/jpeg%3bbase64%2c/9j/2wBDAAYEBQYFBAYGBQYHBwYIChAKCgkJChQODwwQFxQYGBcUFhYaHSUfGhsjHBYWICwgIyYnKSopGR8tMC0oMCUoKSj/2wBDAQcHBwoIChMKChMoGhYaKCgoKCgoKCgoKCgoKCgoKCgoKCgoKCgoKCgoKCgoKCgoKCgoKCgoKCgoKCgoKCgoKCj/wAARCAAkAEADASIAAhEBAxEB/8QAHAAAAQUBAQEAAAAAAAAAAAAAAAMEBQYHAgEI/8QALhAAAQMDAgQEBwADAAAAAAAAAQIDBAAFEQYhEjFRYRMiQYEHFCNScZGxQnKh/8QAGwEAAQQDAAAAAAAAAAAAAAAABAABAgUDBgf/xAApEQACAgEDAgQHAQAAAAAAAAABAgADEQQSIQUxQWFx8BMUQlGBkaHR/9oADAMBAAIRAxEAPwCuMxO1PWofaqSjXEpMkExY3hEDy5JI9x/K0fTlwg3thTkJZUUYC0qTwke3SgLXesZM3LSXae9tqHmN0Qu1LJh49KsCIQxyrv5PtQp1eJZigSCRE23FdGGOlToigele/LDpUfnRMopEo97sCJyVEpBIQrCfuXjCc9h071D6c0%2bbehXGfrpHhOY5K5KB/wCmtLXEyai5sURpjbpwG3vpr7KGSk/0e4phrvpBg76GouLcczHG1MwUtKbiNSFSGjwqVlQzyJAI7GrX8LLW6i9okpnOtxnEEBtIPC4vG6Fegxueu21LXfW%2bjLxdHXJ%2bnJyoSlKKEtuoQpoFIHlx/qP2a7kfEOxWWOI2ibdLaaW0eMTVDCHPQpGTnnufXA2oq74zpsVTk%2bmPf4mqaa6lLQ7Hhe3sf7NdRH2qA13LlWjTUmVBQ6qSkp4OBvjxvkk9sVVLD8Wm1W6Sb1GS1IQkJZUweIOKxvkHlvj94qb0Lq6XqiaWHFQm2RHWoIKuF51WPRJ6YJOM7Yqgsp1GnJssXKr385eN1Kq1dqNgn%2bTLomobuvUrL79zeQpakqWVg8DfUcGwVgE7fnnW/oZ8ieIgqwMkcjVO19ZtNquNpbkzWYUpLoKg0tJ4EYGSof4jygb9TV/tgauMNuTb1h%2bOoeVSN%2b2/T3oLqnVUauu1FKg58MenMhoWNJcO%2befvGCmRTG6wPm4TzCTwKUnyq%2b1XMH2OKe6kukDTsXx7o4pscwhKSpZGcZA965sU%2bJfbeJkDxfCKikhxBSoHuDVYutuCC/adue/hmWI1KMdhM%2bT6BRRXUZz6e0vFlPxStUZ5xpS0FtRQrBKTzH4NFFMQCMGIHHaIZp5Euc%2bGngiTZLCCclLTqkg%2bwNFFOyhhhhmIEjkR1cdR3q4pbTPukyQlvIR4jpPCM5/tLR9WX%2bNb1wmrvMEVfNsuZ7czuP3RRWE6akjaUGB5CTW1wchj%2b5//2Q==' /%3e%3c/svg%3e"}}}]}},"context":{}}